Assignment 2: Spatial Analysis and Visualization
…
county_stats <- vulnerable_tracts_county %>%
  st_drop_geometry() %>%
  group_by(COUNTY_NAM) %>%
  summarise(
    n_vulnerable_tracts = n(),
    n_underserved_tracts = sum(underserved),
    pct_underserved = round(100 * n_underserved_tracts / n_vulnerable_tracts, 1),
    avg_distance_mi = mean(dist_to_hospital_mi),
    total_vulnerable_pop = sum(total_pop, na.rm = TRUE)   # <- use the correct column name
  ) %>%
  arrange(desc(pct_underserved))

county_stats

# A tibble: 59 × 6
   COUNTY_NAM n_vulnerable_tracts n_underserved_tracts pct_underserved
   <chr>                    <int>                <int>           <dbl>
 1 COLUMBIA                     1                    1           100  
 2 PERRY                        2                    2           100  
 3 MONROE                       3                    2            66.7
 4 CAMERON                      4                    2            50  
 5 CLINTON                      2                    1            50  
 6 DAUPHIN                      2                    1            50  
 7 SULLIVAN                     2                    1            50  
 8 CLARION                      5                    2            40  
 9 ELK                          5                    2            40  
10 BRADFORD                     3                    1            33.3
# ℹ 49 more rows
# ℹ 2 more variables: avg_distance_mi <dbl>, total_vulnerable_pop <dbl>
…
